[2021-05-08 02:22:56][4f14baa8-463f-48e0-8654-f75ad68bd427] Processing: Illuminate\Notifications\Events\BroadcastNotificationCreated
[2021-05-08 02:22:57][4f14baa8-463f-48e0-8654-f75ad68bd427] Processed:  Illuminate\Notifications\Events\BroadcastNotificationCreated
[2021-05-08 02:23:19][f353e1cd-3828-4b15-b3ad-84bc78013469] Processing: Illuminate\Notifications\Events\BroadcastNotificationCreated
[2021-05-08 02:23:19][f353e1cd-3828-4b15-b3ad-84bc78013469] Processed:  Illuminate\Notifications\Events\BroadcastNotificationCreated
[2021-05-08 02:25:11][1c1ddd39-f3c4-4ddd-86c8-df8a33ea2d5b] Processing: App\Events\AutoReplyMessageEvent
[2021-05-08 02:25:11][1c1ddd39-f3c4-4ddd-86c8-df8a33ea2d5b] Processed:  App\Events\AutoReplyMessageEvent
[2021-05-08 02:25:21][d8193114-27c1-4b1f-9bba-bef60f93bfef] Processing: Illuminate\Notifications\Events\BroadcastNotificationCreated
[2021-05-08 02:25:21][d8193114-27c1-4b1f-9bba-bef60f93bfef] Processed:  Illuminate\Notifications\Events\BroadcastNotificationCreated
[2021-05-08 02:44:31][418a1fdc-8892-4eaa-a4f2-aa0377083c09] Processing: App\Events\AutoReplyMessageEvent
[2021-05-08 02:44:31][418a1fdc-8892-4eaa-a4f2-aa0377083c09] Processed:  App\Events\AutoReplyMessageEvent
[2021-05-08 02:51:35][5c297c6c-54e2-4cda-a010-611f9c4e2353] Processing: Illuminate\Notifications\Events\BroadcastNotificationCreated
[2021-05-08 02:51:35][5c297c6c-54e2-4cda-a010-611f9c4e2353] Processed:  Illuminate\Notifications\Events\BroadcastNotificationCreated
[2021-05-08 03:04:44][8df809be-406c-4541-8112-11ddb3950836] Processing: App\Events\AutoReplyMessageEvent
[2021-05-08 03:04:45][8df809be-406c-4541-8112-11ddb3950836] Processed:  App\Events\AutoReplyMessageEvent
[2021-05-08 03:04:57][68de55a0-7dce-4264-b4c8-9ae194bfdee4] Processing: Illuminate\Notifications\Events\BroadcastNotificationCreated
[2021-05-08 03:04:57][68de55a0-7dce-4264-b4c8-9ae194bfdee4] Processed:  Illuminate\Notifications\Events\BroadcastNotificationCreated
[2021-05-08 03:30:30][f64afcdb-cfe6-409b-a7f6-780d507f6714] Processing: App\Events\AutoReplyMessageEvent
[2021-05-08 03:30:31][f64afcdb-cfe6-409b-a7f6-780d507f6714] Processed:  App\Events\AutoReplyMessageEvent
[2021-05-08 03:30:34][844ad8c8-1117-4121-b4dd-b149f29f755a] Processing: App\Events\AutoReplyMessageEvent
[2021-05-08 03:30:34][844ad8c8-1117-4121-b4dd-b149f29f755a] Processed:  App\Events\AutoReplyMessageEvent
[2021-05-08 03:39:29][d81860b0-bc95-4ef7-baa4-e45eccd7e18f] Processing: App\Events\AutoReplyMessageEvent
[2021-05-08 03:39:29][d81860b0-bc95-4ef7-baa4-e45eccd7e18f] Processed:  App\Events\AutoReplyMessageEvent
[2021-05-08 03:39:51][41944717-2c6b-4713-87d6-bb1501daee72] Processing: App\Events\AutoReplyMessageEvent
[2021-05-08 03:39:51][41944717-2c6b-4713-87d6-bb1501daee72] Processed:  App\Events\AutoReplyMessageEvent
[2021-05-08 03:43:01][c7ece020-4bb8-4215-bc45-8deff2dfcdff] Processing: App\Events\AutoReplyMessageEvent
[2021-05-08 03:43:01][c7ece020-4bb8-4215-bc45-8deff2dfcdff] Processed:  App\Events\AutoReplyMessageEvent
[2021-05-08 03:43:17][ec992ecf-f750-439f-bc37-54f06ea583ca] Processing: App\Events\AutoReplyMessageEvent
[2021-05-08 03:43:17][ec992ecf-f750-439f-bc37-54f06ea583ca] Processed:  App\Events\AutoReplyMessageEvent
[2021-05-08 03:44:48][2fbb04b1-b4df-48b1-b7eb-634949adf48c] Processing: App\Events\AutoReplyMessageEvent
[2021-05-08 03:44:48][2fbb04b1-b4df-48b1-b7eb-634949adf48c] Processed:  App\Events\AutoReplyMessageEvent
[2021-05-08 04:03:23][57e3a8ad-58f3-46c2-9f2a-31cb08b02956] Processing: App\Events\AutoReplyMessageEvent
[2021-05-08 04:03:23][57e3a8ad-58f3-46c2-9f2a-31cb08b02956] Processed:  App\Events\AutoReplyMessageEvent
[2021-05-08 04:09:51][8bf5bc1d-601a-4b87-9e39-1dad9eb1cf93] Processing: Illuminate\Notifications\Events\BroadcastNotificationCreated
[2021-05-08 04:09:51][8bf5bc1d-601a-4b87-9e39-1dad9eb1cf93] Processed:  Illuminate\Notifications\Events\BroadcastNotificationCreated
[2021-05-08 04:10:04][b18df9b5-10b0-49fb-84b5-1d6ec124cd08] Processing: Illuminate\Notifications\Events\BroadcastNotificationCreated
[2021-05-08 04:10:04][b18df9b5-10b0-49fb-84b5-1d6ec124cd08] Processed:  Illuminate\Notifications\Events\BroadcastNotificationCreated
[2021-05-08 04:10:48][92a587fb-253e-489e-a276-c9aed55fa6a2] Processing: Illuminate\Notifications\Events\BroadcastNotificationCreated
[2021-05-08 04:10:48][92a587fb-253e-489e-a276-c9aed55fa6a2] Processed:  Illuminate\Notifications\Events\BroadcastNotificationCreated
[2021-05-08 04:18:45][7d7f108e-b4f1-4c78-bc9e-fc2accacb817] Processing: Illuminate\Notifications\Events\BroadcastNotificationCreated
[2021-05-08 04:18:45][7d7f108e-b4f1-4c78-bc9e-fc2accacb817] Processed:  Illuminate\Notifications\Events\BroadcastNotificationCreated
[2021-05-08 04:18:51][903eae1c-fa50-47f0-b6fb-f8429a652b6b] Processing: Illuminate\Notifications\Events\BroadcastNotificationCreated
[2021-05-08 04:18:51][903eae1c-fa50-47f0-b6fb-f8429a652b6b] Processed:  Illuminate\Notifications\Events\BroadcastNotificationCreated
[2021-05-08 04:32:24][709d1658-f25e-41c2-a467-c202b93d25bc] Processing: Illuminate\Notifications\Events\BroadcastNotificationCreated
[2021-05-08 04:32:25][709d1658-f25e-41c2-a467-c202b93d25bc] Processed:  Illuminate\Notifications\Events\BroadcastNotificationCreated

                                         
  The "--deamon" option does not exist.  
                                         

